module gitlab.com/david-kalmakoff/imgproc

go 1.20

require github.com/h2non/bimg v1.1.9

require (
	github.com/cpuguy83/go-md2man/v2 v2.0.2 // indirect
	github.com/disintegration/imaging v1.6.2 // indirect
	github.com/russross/blackfriday/v2 v2.1.0 // indirect
	github.com/urfave/cli/v2 v2.25.7 // indirect
	github.com/xrash/smetrics v0.0.0-20201216005158-039620a65673 // indirect
	golang.org/x/image v0.0.0-20191009234506-e7c1f5e7dbb8 // indirect
)
